<svg width="18" height="10" viewBox="0 0 18 10" fill="none" xmlns="http://www.w3.org/2000/svg">
<path d="M1 8.77893L8.62311 1.15653C8.67258 1.10699 8.73133 1.06769 8.796 1.04088C8.86067 1.01406 8.92999 1.00026 9 1.00026C9.07001 1.00026 9.13933 1.01406 9.204 1.04088C9.26867 1.06769 9.32742 1.10699 9.37689 1.15653L17 8.77893" stroke="#161C2D" stroke-width="2" stroke-linecap="round" stroke-linejoin="round"/>
</svg>
