<svg width="18" height="10" viewBox="0 0 18 10" fill="none" xmlns="http://www.w3.org/2000/svg">
<path d="M17 1L9.37689 8.6224C9.32742 8.67194 9.26867 8.71124 9.204 8.73805C9.13933 8.76487 9.07001 8.77867 9 8.77867C8.92999 8.77867 8.86067 8.76487 8.796 8.73805C8.73133 8.71124 8.67258 8.67194 8.62311 8.6224L1 1" stroke="#161C2D" stroke-width="2" stroke-linecap="round" stroke-linejoin="round"/>
</svg>
