<svg width="21" height="18" viewBox="0 0 21 18" fill="none" xmlns="http://www.w3.org/2000/svg">
<path d="M20.25 16.125C20.25 16.4234 20.1315 16.7095 19.9205 16.9205C19.7095 17.1315 19.4234 17.25 19.125 17.25H1.125C0.826631 17.25 0.540483 17.1315 0.329505 16.9205C0.118526 16.7095 0 16.4234 0 16.125V1.125C0 0.826631 0.118526 0.540483 0.329505 0.329505C0.540483 0.118526 0.826631 0 1.125 0C1.42337 0 1.70952 0.118526 1.9205 0.329505C2.13147 0.540483 2.25 0.826631 2.25 1.125V10.4093L6.32972 6.32953C6.54069 6.11857 6.82683 6.00005 7.12519 6.00005C7.42354 6.00005 7.70968 6.11857 7.92066 6.32953L10.1252 8.53397L14.9093 3.75H13.8752C13.5768 3.75 13.2907 3.63147 13.0797 3.4205C12.8687 3.20952 12.7502 2.92337 12.7502 2.625C12.7502 2.32663 12.8687 2.04048 13.0797 1.8295C13.2907 1.61853 13.5768 1.5 13.8752 1.5H17.6252L17.6294 1.50019C17.665 1.50037 17.7006 1.50219 17.7361 1.50563C17.7533 1.50731 17.7698 1.5105 17.7869 1.51294C17.8063 1.51575 17.8257 1.518 17.845 1.52175C17.8639 1.5255 17.8822 1.53075 17.9008 1.53544C17.9179 1.53975 17.935 1.54341 17.9518 1.54856C17.9698 1.554 17.9872 1.56075 18.0048 1.56703C18.0218 1.57313 18.0391 1.57875 18.0559 1.58578C18.0722 1.59253 18.0877 1.60041 18.1037 1.60791C18.1211 1.61616 18.1387 1.62384 18.1556 1.63294C18.1706 1.641 18.185 1.65028 18.1997 1.659C18.2166 1.66903 18.2336 1.67869 18.25 1.68956C18.2659 1.70016 18.2807 1.71197 18.2959 1.72331C18.3101 1.73391 18.3247 1.74384 18.3385 1.75519C18.3652 1.77713 18.3907 1.80038 18.4153 1.82456C18.4171 1.82625 18.4191 1.82775 18.4207 1.82953C18.4226 1.83141 18.424 1.83328 18.4258 1.83516C18.45 1.85953 18.4732 1.88512 18.4952 1.91175C18.5064 1.92562 18.5164 1.94016 18.527 1.95431C18.5382 1.9695 18.55 1.98431 18.5605 2.00006C18.5718 2.01684 18.5815 2.03409 18.5917 2.05134C18.6002 2.06569 18.6093 2.07966 18.6172 2.09447C18.6265 2.11181 18.6344 2.12962 18.6427 2.14734C18.6501 2.16291 18.6578 2.17828 18.6644 2.19422C18.6716 2.21147 18.6773 2.22909 18.6835 2.24653C18.6897 2.26378 18.6963 2.28066 18.7016 2.29809C18.707 2.31581 18.7109 2.33372 18.7153 2.35162C18.7198 2.36934 18.7248 2.38688 18.7284 2.40488C18.7325 2.42559 18.735 2.4465 18.7379 2.46741C18.7402 2.48288 18.7431 2.49816 18.7446 2.51381C18.7483 2.55094 18.7502 2.58816 18.7502 2.62537V6.375C18.7502 6.67337 18.6317 6.95952 18.4207 7.1705C18.2097 7.38147 17.9236 7.5 17.6252 7.5C17.3268 7.5 17.0407 7.38147 16.8297 7.1705C16.6187 6.95952 16.5002 6.67337 16.5002 6.375V5.34094L10.9208 10.9205C10.7098 11.1314 10.4236 11.2499 10.1253 11.2499C9.82693 11.2499 9.54079 11.1314 9.32981 10.9205L7.12519 8.71603L2.25 13.5913V15H19.125C19.4234 15 19.7095 15.1185 19.9205 15.3295C20.1315 15.5405 20.25 15.8266 20.25 16.125Z" fill="white"/>
</svg>
