<?xml version="1.0" standalone="no"?>
<!DOCTYPE svg PUBLIC "-//W3C//DTD SVG 20010904//EN"
 "http://www.w3.org/TR/2001/REC-SVG-20010904/DTD/svg10.dtd">
<svg version="1.0" xmlns="http://www.w3.org/2000/svg"
 width="1280.000000pt" height="1280.000000pt" viewBox="0 0 1280.000000 1280.000000"
 preserveAspectRatio="xMidYMid meet">
<metadata>
Created by potrace 1.16, written by Peter Selinger 2001-2019
</metadata>
<g transform="translate(0.000000,1280.000000) scale(0.100000,-0.100000)"
fill="#000000" stroke="none">
<path d="M6065 12699 c-889 -45 -1787 -287 -2565 -692 -1039 -539 -1917 -1367
-2524 -2378 -465 -776 -753 -1645 -851 -2569 -47 -448 -45 -871 6 -1345 99
-919 390 -1782 867 -2570 456 -752 1094 -1430 1817 -1929 916 -632 1911 -988
3050 -1092 229 -21 788 -24 995 -6 498 45 882 114 1288 231 1213 351 2254
1033 3093 2026 364 431 717 1002 939 1520 268 624 433 1283 496 1980 21 229
24 756 5 980 -74 911 -285 1663 -685 2440 -261 506 -546 915 -957 1369 -134
148 -174 189 -395 393 -547 507 -1229 935 -1929 1211 -717 282 -1436 423
-2215 436 -140 3 -336 0 -435 -5z m783 -392 c52 -4 101 -11 109 -15 8 -5 38
-8 66 -6 50 3 50 2 12 -5 -28 -6 -33 -9 -15 -10 14 0 48 -3 75 -5 41 -3 44 -2
15 4 l-35 7 37 2 c20 0 40 -4 43 -9 4 -6 11 -8 16 -4 5 3 15 1 22 -4 7 -5 35
-12 62 -16 38 -5 47 -4 35 5 -13 9 -12 10 3 5 10 -3 31 -6 45 -7 l27 -1 -25
-7 -25 -7 28 -6 c15 -3 30 -1 33 3 9 16 39 9 52 -11 7 -11 22 -20 35 -21 21
-1 21 -1 -3 -9 -23 -7 -22 -8 10 -9 19 0 52 3 72 8 22 5 36 5 32 0 -3 -5 -2
-9 3 -9 4 0 19 -3 33 -6 24 -6 25 -6 5 10 -19 16 -19 16 10 10 17 -4 35 -9 40
-13 6 -3 19 -5 30 -4 16 1 16 1 3 -3 -32 -10 -19 -24 22 -24 34 0 40 -3 40
-21 0 -12 4 -17 11 -14 6 4 8 14 5 22 -5 12 -1 14 21 9 16 -4 37 -7 48 -8 15
0 13 -3 -10 -14 -16 -7 -35 -13 -41 -14 -6 0 -17 -7 -24 -15 -7 -9 -29 -15
-51 -15 -28 0 -39 4 -39 15 0 11 -11 15 -40 15 l-40 0 0 -55 0 -55 -40 0 -40
0 0 -40 0 -40 -40 0 -40 0 0 -40 0 -40 -40 0 -40 0 0 -40 0 -40 -40 0 -40 0 0
-40 0 -40 -40 0 -40 0 0 -40 0 -40 -40 0 -40 0 0 -40 0 -40 -40 0 -40 0 0 -40
0 -40 -40 0 -40 0 0 -40 0 -40 -40 0 -40 0 0 -40 0 -40 -40 0 -40 0 0 -40 0
-40 -40 0 c-36 0 -40 -2 -40 -25 0 -22 -4 -25 -40 -25 l-40 0 0 -55 0 -55 40
0 40 0 0 -40 0 -40 -40 0 -40 0 0 40 0 40 -40 0 -40 0 0 -40 0 -40 -40 0 -40
0 0 -40 0 -40 -40 0 -40 0 0 -40 0 -40 -40 0 -40 0 0 -40 0 -40 -40 0 -40 0 0
-40 0 -40 -40 0 -40 0 0 -40 0 -40 -40 0 -40 0 0 -40 0 -40 -40 0 -40 0 0 -40
0 -40 -40 0 -40 0 0 -40 0 -40 -40 0 -40 0 0 -40 0 -40 -40 0 -40 0 0 -40 0
-40 -40 0 -40 0 0 -40 0 -40 -40 0 -40 0 0 -40 0 -40 -40 0 -40 0 0 -40 0 -40
-40 0 -40 0 0 -40 0 -40 -40 0 -40 0 0 -40 0 -40 -40 0 -40 0 0 -40 0 -40 -40
0 -40 0 0 -40 0 -40 -40 0 -40 0 0 -40 0 -40 -55 0 -55 0 0 -40 c0 -29 4 -40
15 -40 11 0 15 -11 15 -40 l0 -40 -40 0 -40 0 0 -40 0 -40 -40 0 -40 0 0 -40
0 -40 -40 0 -40 0 0 -40 0 -40 -40 0 -40 0 0 -40 0 -40 -40 0 -40 0 0 -40 0
-40 -40 0 -40 0 0 -40 0 -40 -40 0 -40 0 0 -40 0 -40 -40 0 -40 0 0 -40 0 -40
-40 0 -40 0 0 -40 0 -40 -80 0 -80 0 0 -80 0 -80 -40 0 -40 0 0 -40 0 -40 -40
0 -40 0 0 -40 0 -40 -40 0 -40 0 0 -40 c0 -29 4 -40 15 -40 11 0 15 -11 15
-40 0 -29 -4 -40 -15 -40 -11 0 -15 11 -15 40 l0 40 -40 0 -40 0 0 -40 0 -40
-40 0 -40 0 0 -40 0 -40 -40 0 -40 0 0 -40 0 -40 -40 0 -40 0 0 -40 0 -40 -40
0 -40 0 0 -40 0 -40 -40 0 -40 0 0 -40 c0 -29 4 -40 15 -40 11 0 15 -11 15
-40 0 -29 -4 -40 -15 -40 -11 0 -15 11 -15 40 l0 40 -40 0 -40 0 0 -40 0 -40
-40 0 -40 0 0 -40 0 -40 -40 0 -40 0 0 -40 0 -40 -40 0 -40 0 0 -40 0 -40 -40
0 -40 0 0 -40 0 -40 -40 0 -40 0 0 -40 c0 -29 4 -40 15 -40 11 0 15 -11 15
-40 0 -29 -4 -40 -15 -40 -11 0 -15 11 -15 40 l0 40 -40 0 -40 0 0 -40 0 -40
-40 0 -40 0 0 -40 0 -40 -40 0 -40 0 0 -40 0 -40 -40 0 c-39 0 -40 -1 -40 -35
l0 -35 200 0 c153 0 200 -3 200 -12 0 -10 -80 -13 -369 -13 -203 0 -364 -3
-357 -7 6 -5 1 -8 -14 -9 l-25 -1 25 -8 c14 -4 115 -9 225 -11 l200 -3 -230
-6 -230 -5 -6 -90 -5 -90 -4 75 -4 75 -3 -72 c-3 -54 -7 -73 -18 -73 -21 0
-27 -16 -10 -30 12 -10 16 -8 24 11 9 22 10 22 11 4 l1 -20 9 20 c5 11 9 57 9
103 l1 82 385 0 386 0 -3 -122 -3 -122 -44 -13 c-52 -15 -63 -23 -52 -41 6 -9
15 -10 40 -1 21 8 29 14 21 19 -16 10 5 24 25 16 30 -11 16 -36 -25 -42 -22
-4 -43 -10 -45 -14 -8 -13 38 -139 48 -133 5 3 6 -4 2 -17 -5 -15 -3 -20 3
-16 6 3 14 1 18 -5 4 -8 3 -9 -4 -5 -17 11 -16 6 35 -144 26 -76 52 -136 57
-133 5 4 7 -1 3 -9 -3 -9 5 -49 18 -89 13 -41 34 -110 46 -153 l23 -79 22 105
c12 57 43 172 68 254 26 82 48 155 49 164 2 8 6 21 10 28 5 7 5 22 2 35 -4 15
-3 18 3 9 7 -10 12 -1 21 32 14 57 14 69 -1 60 -7 -4 -8 -3 -4 5 4 6 11 9 16
6 7 -4 54 124 47 131 -1 1 -31 8 -67 14 -36 7 -71 14 -77 16 -10 2 -13 36 -13
124 l0 120 338 0 337 0 0 -120 0 -120 -55 -16 c-30 -8 -65 -18 -78 -22 -28 -9
-84 -126 -76 -157 4 -15 3 -16 -4 -6 -7 10 -13 2 -25 -30 -8 -24 -35 -92 -60
-151 -24 -59 -40 -105 -36 -102 14 8 11 -3 -4 -18 -8 -7 -57 -119 -110 -248
-52 -129 -114 -280 -136 -335 -23 -55 -39 -106 -36 -113 3 -7 0 -10 -5 -7 -6
3 -10 1 -10 -4 0 -8 -66 -11 -201 -11 -120 0 -198 4 -194 9 7 13 -16 62 -26
55 -5 -3 -6 3 -2 12 4 12 3 15 -5 10 -8 -5 -10 -2 -6 9 4 8 -1 26 -10 40 -9
13 -16 28 -16 33 0 5 -11 34 -25 63 -14 30 -23 43 -20 29 5 -21 4 -22 -5 -7
-6 9 -8 21 -5 27 5 8 -39 117 -103 258 l-19 44 -8 -39 c-6 -25 -10 -32 -13
-19 -3 15 -6 16 -13 5 -6 -10 -8 -4 -7 19 1 18 8 38 15 44 11 8 12 7 7 -8 -5
-17 -4 -17 5 -2 12 18 4 51 -10 42 -5 -3 -6 3 -2 12 5 13 3 15 -7 9 -8 -5 -11
-4 -7 2 4 6 -4 35 -17 64 -15 35 -25 48 -29 38 -4 -7 -5 -5 -2 7 3 11 -6 45
-19 75 -14 30 -25 50 -25 45 -1 -12 -30 25 -31 38 0 6 7 1 15 -10 8 -10 3 11
-12 48 -27 65 -45 82 -36 33 3 -13 9 -23 13 -20 5 3 6 -4 3 -16 -5 -16 -8 -18
-15 -7 -7 9 -8 8 -4 -5 3 -10 6 -24 6 -30 1 -7 7 -1 15 13 8 14 14 20 15 14 0
-5 -6 -18 -13 -29 -13 -17 -14 -17 -29 4 -10 14 -14 35 -11 57 5 36 -9 64 -33
64 -9 0 -14 -11 -14 -27 0 -38 -15 -61 -24 -38 -8 21 3 65 16 65 6 0 8 7 4 15
-3 8 3 19 12 25 13 7 14 12 4 18 -7 5 -10 16 -7 24 4 9 2 19 -4 23 -7 4 -8 0
-4 -12 6 -15 5 -16 -9 -3 -9 8 -14 18 -12 21 4 8 -68 20 -75 13 -3 -3 1 -9 9
-14 8 -6 10 -10 4 -10 -5 0 -15 5 -22 12 -9 9 -12 9 -12 0 0 -7 -13 -12 -30
-12 -28 0 -30 -2 -30 -41 0 -28 -4 -39 -12 -37 -16 6 -23 69 -9 77 19 12 -26
111 -50 111 -5 0 -9 -7 -9 -15 0 -8 -5 -15 -10 -15 -6 0 -2 -10 9 -21 18 -19
19 -32 16 -111 -2 -50 -9 -96 -15 -103 -6 -7 -9 -45 -7 -88 2 -47 -2 -81 -9
-92 -9 -12 -13 -13 -18 -3 -3 7 -4 -13 -1 -45 4 -38 2 -56 -5 -52 -5 3 -10 1
-10 -4 0 -6 4 -11 10 -11 5 0 7 -7 4 -15 -4 -8 -10 -15 -16 -15 -5 0 -6 4 -3
10 3 6 -2 10 -12 10 -15 0 -16 2 -3 10 10 6 -134 10 -415 10 -424 0 -431 0
-432 -20 -2 -18 0 -19 13 -5 13 13 49 15 222 13 192 -2 198 -2 82 -8 l-125 -6
160 -4 c88 -2 143 -5 123 -7 -37 -4 -38 -5 -38 -44 0 -39 0 -39 -40 -39 l-40
0 0 -40 0 -40 -40 0 -40 0 0 -40 c0 -29 4 -40 15 -40 11 0 15 -11 15 -39 0
-34 -4 -40 -27 -45 -14 -4 -29 -3 -32 3 -8 12 -40 9 -49 -5 -4 -5 -19 -9 -34
-9 -16 1 -28 -2 -28 -6 0 -8 82 -43 135 -58 46 -12 171 -14 230 -2 l40 8 -30
8 c-26 7 -27 9 -10 16 28 11 43 10 26 0 -11 -7 -5 -11 22 -16 27 -5 59 0 121
21 47 15 83 30 81 34 -2 4 6 6 18 5 12 -1 23 -9 25 -18 2 -10 8 -14 14 -11 6
4 8 2 5 -4 -9 -14 3 -43 14 -36 5 3 6 -2 3 -11 -4 -8 1 -26 10 -40 24 -36 20
-49 -21 -78 -37 -26 -39 -36 -4 -18 13 7 18 6 18 -3 0 -8 -12 -12 -31 -11 -39
3 -58 -4 -49 -18 3 -6 1 -7 -6 -3 -6 4 -22 1 -34 -6 -12 -8 -56 -25 -97 -38
-41 -13 -84 -30 -94 -39 -14 -11 -17 -12 -11 -2 6 11 2 12 -21 7 -64 -16 -126
-21 -274 -20 -128 0 -170 4 -240 23 -46 12 -90 27 -97 32 -6 6 -39 12 -72 13
-56 3 -59 2 -48 -15 14 -23 23 -24 30 -4 5 11 12 12 35 4 16 -5 33 -9 38 -7
12 4 14 -4 14 -52 l0 -40 -80 0 -80 0 0 -40 0 -40 -40 0 -40 0 0 -40 0 -40
-40 0 -40 0 0 -40 0 -40 -40 0 -40 0 -1 -67 c-1 -38 -5 -81 -10 -98 -6 -23 -7
-16 -4 27 2 32 0 58 -5 58 -12 0 -23 -56 -15 -82 4 -16 4 -19 -3 -9 -5 7 -14
11 -20 7 -6 -3 -8 2 -5 13 3 10 0 22 -6 25 -17 11 -13 26 4 20 9 -4 15 0 15
10 0 9 -4 16 -10 16 -5 0 -10 18 -10 39 0 22 -4 43 -10 46 -5 3 -10 22 -10 41
0 19 -4 34 -9 34 -4 0 -6 -12 -3 -27 2 -16 2 -25 -2 -22 -9 9 -17 62 -22 143
-3 45 -10 76 -20 87 -10 11 -14 25 -10 36 8 20 5 29 -7 25 -5 -1 -6 23 -3 55
3 41 3 49 -3 28 -8 -28 -9 -28 -10 -5 0 14 3 40 8 58 11 36 5 44 -8 10 -6 -16
-10 0 -14 55 -4 42 -4 84 0 93 3 9 1 19 -5 23 -5 3 -15 56 -20 116 -6 61 -11
117 -12 125 -1 8 -4 169 -7 358 -5 349 0 442 42 812 30 270 141 802 158 760 3
-8 3 -1 1 15 -10 58 198 652 311 891 19 40 37 84 41 98 3 14 10 28 14 31 4 2
20 31 35 62 47 100 60 124 165 308 230 404 487 753 795 1084 120 129 270 277
364 361 46 41 89 80 95 85 90 82 309 260 348 283 15 9 28 20 28 24 0 4 6 8 14
8 8 0 16 3 18 8 11 25 344 243 553 361 99 56 187 106 195 111 8 6 26 15 40 21
14 5 50 22 80 37 30 15 57 27 60 27 3 1 28 13 55 27 28 14 79 38 115 53 36 15
79 33 95 40 103 46 178 76 235 94 36 12 74 26 85 31 64 29 488 154 575 170 25
5 88 18 140 30 218 49 512 92 815 119 111 10 747 8 893 -2z m2306 -1740 c15
-19 26 -40 26 -47 0 -7 16 -31 36 -53 46 -50 76 -117 83 -187 6 -52 7 -55 36
-58 29 -3 32 1 55 55 27 65 95 145 140 163 17 7 30 18 30 25 0 23 60 65 91 65
99 0 142 -109 71 -175 -31 -29 -87 -34 -118 -10 -28 21 -41 18 -79 -18 -48
-46 -86 -147 -56 -147 15 0 101 -81 130 -124 80 -116 81 -284 1 -410 -17 -26
-30 -49 -28 -51 2 -1 77 -26 168 -54 418 -132 462 -152 556 -254 169 -182 177
-416 22 -592 -91 -103 -205 -150 -344 -143 -70 4 -94 10 -157 41 -40 20 -94
56 -119 79 l-46 43 -12 -50 c-7 -27 -28 -88 -46 -134 -93 -232 -248 -393 -416
-430 -67 -15 -179 2 -238 36 -161 94 -268 318 -286 602 -5 74 -10 98 -18 92
-28 -24 -168 -71 -227 -77 -194 -20 -379 114 -440 320 -70 233 81 469 352 551
37 11 143 21 344 32 160 8 291 16 292 17 2 1 -7 27 -18 57 -24 63 -28 162 -8
229 30 101 123 201 226 240 l48 18 -1 61 c-1 53 -5 67 -32 99 -17 20 -36 35
-44 33 -17 -5 -118 -7 -113 -2 3 2 -4 16 -15 31 -12 17 -20 44 -20 70 0 58 35
90 101 90 43 0 51 -4 73 -33z m-2572 -2656 l173 -99 3 -215 2 -215 -52 -30
c-29 -16 -110 -62 -180 -102 l-128 -72 -180 104 -180 103 0 211 0 211 173 101
c94 55 178 100 184 101 7 0 90 -44 185 -98z m1478 -451 c227 -23 401 -92 485
-192 95 -112 119 -315 58 -478 -37 -96 -122 -192 -213 -238 l-59 -30 47 -6
c129 -17 284 -135 341 -258 42 -91 51 -132 51 -234 0 -208 -83 -376 -228 -461
l-43 -26 -99 105 c-158 168 -154 161 -139 205 32 99 27 268 -10 341 -29 57
-105 130 -159 155 -54 24 -186 34 -307 22 l-76 -7 3 -348 c2 -192 6 -351 10
-355 15 -16 91 -26 208 -29 l124 -3 79 -83 c94 -99 98 -93 -84 -109 -90 -8
-222 -9 -482 -1 -198 5 -363 7 -368 4 -6 -3 -42 -3 -80 1 l-70 7 3 91 c3 103
-12 87 126 127 l72 21 0 758 0 759 -22 5 c-13 4 -54 9 -91 13 -47 5 -70 12
-76 23 -5 9 -9 60 -10 114 l-2 97 288 1 c158 1 333 5 388 9 153 10 231 11 335
0z m-2950 -555 c76 -20 128 -46 190 -95 68 -53 88 -77 126 -154 52 -107 67
-195 61 -356 -3 -74 -9 -145 -13 -157 l-6 -23 -444 0 -444 0 0 -27 c0 -52 30
-167 57 -223 34 -71 119 -153 180 -175 109 -39 340 -26 482 27 101 37 93 40
130 -53 l32 -83 -23 -18 c-80 -64 -257 -128 -420 -152 -317 -47 -595 25 -756
197 -55 60 -115 173 -142 267 -27 96 -37 282 -21 383 10 64 10 81 -3 113 -14
33 -14 36 -1 20 8 -11 15 -27 15 -35 1 -9 11 17 24 57 13 40 42 102 65 138 23
36 38 70 35 76 -4 6 -2 8 3 5 14 -9 37 19 28 33 -3 6 -10 8 -14 6 -3 -3 -7 4
-7 15 0 19 1 19 16 -1 16 -21 16 -21 33 -2 9 10 14 22 10 26 -5 4 -1 6 7 4 9
-2 14 3 12 12 -2 8 0 12 4 8 10 -10 34 10 30 25 -1 7 -1 9 1 5 8 -14 25 -8 20
6 -4 11 -1 13 10 9 10 -4 14 -2 9 5 -3 6 -1 14 5 18 8 4 9 3 5 -4 -12 -20 7
-13 52 17 56 39 162 79 254 96 97 19 310 13 398 -10z m1184 9 l36 -6 0 -122 0
-121 29 51 c39 67 116 136 199 176 61 30 74 33 162 33 52 0 103 -3 113 -7 15
-7 17 -27 17 -213 0 -113 -3 -205 -7 -205 -5 0 -17 7 -27 15 -10 8 -53 22 -94
31 -86 19 -199 14 -276 -12 l-46 -16 0 -428 0 -428 83 -11 c45 -7 112 -17 150
-22 l67 -11 0 -88 0 -88 -147 -7 c-123 -7 -762 1 -770 9 -1 1 -4 40 -5 86 l-3
83 50 13 c28 6 62 15 78 18 l27 6 0 424 0 423 -85 59 -84 59 -1 87 c0 74 3 87
18 92 9 2 71 21 137 41 66 20 143 43 170 51 28 7 73 20 100 28 28 8 55 12 62
11 6 -2 28 -7 47 -11z m3696 -9 c170 -47 293 -160 352 -325 21 -59 23 -82 23
-245 0 -99 -3 -188 -7 -197 -7 -17 -38 -18 -453 -18 -512 0 -457 15 -430 -115
48 -229 173 -335 394 -335 119 0 210 15 314 51 72 25 91 28 98 17 5 -7 9 -16
9 -21 0 -4 11 -30 25 -59 31 -65 31 -70 -3 -95 -156 -115 -478 -184 -721 -154
-333 41 -540 227 -601 538 -19 95 -8 339 19 431 85 291 316 493 621 542 76 12
294 3 360 -15z m1644 1 c195 -49 336 -194 377 -391 14 -66 16 -223 5 -327 l-8
-68 -450 0 -451 0 7 -52 c26 -202 123 -340 270 -383 105 -31 309 -15 454 37
46 16 86 28 87 26 9 -8 65 -141 65 -152 0 -42 -197 -132 -365 -167 -492 -100
-866 77 -972 461 -26 92 -25 377 1 469 83 301 307 505 611 557 96 16 283 11
369 -10z m-2751 -1436 c86 -49 165 -95 176 -102 20 -12 21 -22 21 -224 l0
-212 -175 -101 c-97 -56 -178 -101 -182 -101 -3 0 -86 46 -184 103 l-179 102
0 210 0 210 178 102 c97 56 180 102 183 103 4 0 76 -40 162 -90z m-5871 -612
l178 -101 0 -211 -1 -211 -180 -103 -180 -103 -179 103 -180 103 0 210 0 210
128 74 c70 41 147 87 172 102 25 15 49 28 54 28 6 1 90 -45 188 -101z m2370
-736 c35 -21 114 -66 176 -102 l112 -63 0 -212 0 -212 -181 -103 c-143 -82
-184 -102 -197 -93 -15 9 -236 137 -314 182 l-28 16 0 210 0 210 155 89 c85
48 162 94 172 102 27 20 37 18 105 -24z"/>
<path d="M9225 10131 c-84 -22 -153 -79 -197 -164 -33 -63 -32 -176 2 -237
l25 -45 135 -5 c74 -3 141 -9 147 -13 22 -14 126 -38 141 -32 8 3 12 11 9 19
-3 8 1 13 10 12 8 0 26 20 41 49 24 43 27 62 27 140 0 80 -3 95 -27 136 -50
84 -130 134 -229 143 -30 3 -67 1 -84 -3z"/>
<path d="M9065 9595 c-5 -2 -145 -11 -310 -20 -358 -19 -409 -26 -493 -68
-102 -50 -214 -171 -198 -213 3 -8 2 -13 -3 -10 -5 3 -11 -8 -15 -25 -23 -115
13 -227 99 -314 33 -34 78 -69 100 -80 57 -26 159 -31 231 -10 131 38 211 111
323 293 44 73 81 135 81 138 0 3 5 10 10 17 26 29 196 298 188 296 -2 0 -7 -2
-13 -4z m-545 -95 c15 0 22 -38 10 -60 -7 -14 -21 -20 -43 -20 -69 0 -183 -42
-171 -62 5 -7 2 -8 -5 -3 -8 5 -29 -8 -57 -36 -34 -33 -46 -54 -54 -95 -13
-61 -30 -79 -65 -70 -22 6 -25 12 -25 50 0 62 30 126 86 183 26 26 47 52 46
56 -2 5 2 6 7 2 6 -3 21 1 33 8 44 28 182 60 216 51 8 -2 17 -4 22 -4z"/>
<path d="M9166 9568 c-18 -32 -111 -177 -146 -228 l-18 -26 95 4 c105 5 190
-8 276 -44 39 -15 57 -19 55 -10 -2 7 -25 80 -52 163 l-50 151 -36 11 c-21 6
-53 11 -72 11 -28 0 -37 -6 -52 -32z"/>
<path d="M9430 9542 c0 -3 24 -80 54 -171 65 -196 98 -304 121 -386 40 -142
130 -257 249 -315 60 -30 80 -35 145 -35 97 0 169 32 245 107 133 134 132 332
-4 481 -81 89 -131 111 -515 232 -265 84 -295 93 -295 87z m589 -242 c102 -37
175 -101 221 -194 24 -48 30 -72 30 -126 0 -74 -12 -94 -52 -88 -21 3 -24 10
-29 75 -11 122 -75 202 -201 254 -66 26 -84 53 -58 85 16 18 25 18 89 -6z"/>
<path d="M9003 9220 c-66 -14 -78 -24 -129 -112 -26 -46 -65 -107 -86 -136
l-40 -53 40 20 c87 44 190 66 312 65 102 0 125 -4 203 -31 94 -33 175 -78 238
-131 21 -19 39 -30 39 -25 0 5 -4 13 -9 18 -10 11 -48 124 -76 223 -16 55 -23
67 -59 90 -83 52 -162 75 -281 78 -60 2 -129 -1 -152 -6z"/>
<path d="M8985 8914 c-74 -16 -118 -31 -177 -62 l-68 -36 0 -62 c0 -34 3 -75
6 -92 l6 -30 69 24 c114 38 213 49 316 35 125 -18 264 -76 340 -144 13 -11 25
-19 27 -16 6 7 56 156 56 168 0 15 -72 80 -134 119 -114 74 -210 103 -336 101
-47 -1 -94 -3 -105 -5z"/>
<path d="M8911 8595 c-30 -8 -74 -24 -98 -35 -40 -17 -43 -22 -37 -47 13 -59
86 -190 131 -236 25 -26 69 -60 96 -74 44 -22 60 -25 117 -21 43 3 82 14 118
32 62 31 159 125 197 190 l27 47 -23 20 c-34 29 -120 77 -192 106 -80 32 -252
41 -336 18z"/>
<path d="M7755 7251 l-30 -6 -3 -332 -2 -332 47 -7 c75 -11 217 3 267 27 83
39 118 88 142 197 29 139 11 288 -43 360 -57 76 -244 122 -378 93z"/>
<path d="M4775 6728 c-99 -35 -172 -160 -189 -325 l-7 -62 230 -3 229 -3 7 77
c16 173 -28 284 -124 317 -41 13 -105 13 -146 -1z"/>
<path d="M9631 6718 c-46 -23 -92 -77 -121 -144 -19 -43 -50 -180 -50 -219 l0
-24 230 -1 229 0 7 36 c4 19 4 82 2 139 -4 89 -8 109 -32 150 -49 82 -168 111
-265 63z"/>
<path d="M11283 6720 c-76 -34 -135 -142 -162 -294 -19 -107 -43 -97 219 -96
138 1 232 5 236 11 3 5 6 61 7 123 1 107 -1 117 -29 172 -23 48 -38 63 -74 82
-55 27 -137 28 -197 2z"/>
</g>
</svg>
