<svg width="1872" height="309" viewBox="0 0 1872 309" fill="none" xmlns="http://www.w3.org/2000/svg">
<path d="M2.29145 -12H1877.84L1883 216.32C1094.74 264.813 697.174 91.8554 0 145.602L2.29145 -12Z" fill="#58B2F1"/>
<path opacity="0.1" d="M2 0H1877.84L1883 228.709C1023.57 309.667 427.703 38.0506 2.57295 136.011L2 0Z" fill="#58B2F1"/>
<path opacity="0.1" d="M1881.71 -45H5.15857L0 158C1289.23 131.405 1186.46 47.3381 1884 95.1239L1881.71 -45Z" fill="#58B2F1"/>
</svg>
